Fitting Models Exercise – MUhammad Nasir Data Analysis Portfolio
…
Data Cleaning

First step in the data cleaning, we want to select only OCC= 1, and calculate summary of Mavoglurant

#OCC =1 
data1 <- data %>%
  filter(OCC==1) #select rows with OCC=1 only 

Summary_DV <- data1 %>%
  filter(TIME != 0) %>%  # Remove rows where TIME is 0
  group_by(ID) %>%
  summarize(Y = sum(DV, na.rm = TRUE))  # Corrected sum function
print(Summary_DV)

# A tibble: 120 × 2
      ID     Y
   <dbl> <dbl>
 1   793 2691.
 2   794 2639.
 3   795 2150.
 4   796 1789.
 5   797 3126.
 6   798 2337.
 7   799 3007.
 8   800 2796.
 9   801 3866.
10   802 1762.
# ℹ 110 more rows

Only including data with time= 0

time_zero <- data1 %>%
  filter(TIME == 0)
print(time_zero)

# A tibble: 120 × 17
      ID   CMT  EVID  EVI2   MDV    DV  LNDV   AMT  TIME  DOSE   OCC  RATE   AGE
   <dbl> <dbl> <dbl> <dbl> <dbl> <dbl> <dbl> <dbl> <dbl> <dbl> <dbl> <dbl> <dbl>
 1   793     1     1     1     1     0     0    25     0    25     1    75    42
 2   794     1     1     1     1     0     0    25     0    25     1   150    24
 3   795     1     1     1     1     0     0    25     0    25     1   150    31
 4   796     1     1     1     1     0     0    25     0    25     1   150    46
 5   797     1     1     1     1     0     0    25     0    25     1   150    41
 6   798     1     1     1     1     0     0    25     0    25     1   150    27
 7   799     1     1     1     1     0     0    25     0    25     1   150    23
 8   800     1     1     1     1     0     0    25     0    25     1   150    20
 9   801     1     1     1     1     0     0    25     0    25     1   150    23
10   802     1     1     1     1     0     0    25     0    25     1   150    28
# ℹ 110 more rows
# ℹ 4 more variables: SEX <dbl>, RACE <dbl>, WT <dbl>, HT <dbl>

Combine two data frames (Summary_DV and time_zero)

data_combined <- left_join(time_zero, Summary_DV, by = join_by(ID))
print(data_combined)

# A tibble: 120 × 18
      ID   CMT  EVID  EVI2   MDV    DV  LNDV   AMT  TIME  DOSE   OCC  RATE   AGE
   <dbl> <dbl> <dbl> <dbl> <dbl> <dbl> <dbl> <dbl> <dbl> <dbl> <dbl> <dbl> <dbl>
 1   793     1     1     1     1     0     0    25     0    25     1    75    42
 2   794     1     1     1     1     0     0    25     0    25     1   150    24
 3   795     1     1     1     1     0     0    25     0    25     1   150    31
 4   796     1     1     1     1     0     0    25     0    25     1   150    46
 5   797     1     1     1     1     0     0    25     0    25     1   150    41
 6   798     1     1     1     1     0     0    25     0    25     1   150    27
 7   799     1     1     1     1     0     0    25     0    25     1   150    23
 8   800     1     1     1     1     0     0    25     0    25     1   150    20
 9   801     1     1     1     1     0     0    25     0    25     1   150    23
10   802     1     1     1     1     0     0    25     0    25     1   150    28
# ℹ 110 more rows
# ℹ 5 more variables: SEX <dbl>, RACE <dbl>, WT <dbl>, HT <dbl>, Y <dbl>
…
